inlab3/part_a/syn_program.out
Chronologic VCS simulator copyright 1991-2011
Contains Synopsys proprietary information.
Compiler version E-2011.03_Full64; Runtime version E-2011.03_Full64;  Jan 25 15:04 2013
STARTING TESTBENCH!

  i=          0  reset=1  state=xx  in=0  out=x  correct=1
  i=          0  reset=0  state=00  in=0  out=0  correct=1
  i=          0  reset=0  state=00  in=1  out=0  correct=1
  i=          0  reset=0  state=01  in=1  out=0  correct=1
  i=          0  reset=0  state=01  in=0  out=0  correct=1
  i=          0  reset=0  state=10  in=1  out=0  correct=1
  i=          0  reset=0  state=11  in=0  out=1  correct=1
  i=          0  reset=0  state=10  in=0  out=0  correct=1
  i=          0  reset=0  state=00  in=0  out=0  correct=1
  i=          0  reset=1  state=00  in=0  out=0  correct=1
  i=          1  reset=0  state=00  in=1  out=0  correct=1
  i=          2  reset=0  state=01  in=1  out=0  correct=1
  i=          3  reset=0  state=01  in=1  out=0  correct=1
  i=          4  reset=0  state=01  in=1  out=0  correct=1
  i=          5  reset=0  state=01  in=1  out=0  correct=1
  i=          6  reset=0  state=01  in=1  out=0  correct=1
  i=          7  reset=0  state=01  in=0  out=0  correct=1
  i=          8  reset=0  state=10  in=1  out=0  correct=1
  i=          9  reset=0  state=11  in=1  out=1  correct=1
  i=         10  reset=1  state=01  in=0  out=0  correct=1
  i=         11  reset=0  state=00  in=1  out=0  correct=1
  i=         12  reset=0  state=01  in=1  out=0  correct=1
  i=         13  reset=0  state=01  in=0  out=0  correct=1
  i=         14  reset=0  state=10  in=1  out=0  correct=1
  i=         15  reset=0  state=11  in=0  out=1  correct=1
  i=         16  reset=0  state=10  in=1  out=0  correct=1
  i=         17  reset=0  state=11  in=0  out=1  correct=1
  i=         18  reset=0  state=10  in=1  out=0  correct=1
  i=         19  reset=0  state=11  in=1  out=1  correct=1
  i=         20  reset=1  state=01  in=0  out=0  correct=1
  i=         21  reset=0  state=00  in=1  out=0  correct=1
  i=         22  reset=0  state=01  in=0  out=0  correct=1
  i=         23  reset=0  state=10  in=0  out=0  correct=1
  i=         24  reset=0  state=00  in=0  out=0  correct=1
  i=         25  reset=0  state=00  in=1  out=0  correct=1
  i=         26  reset=0  state=01  in=0  out=0  correct=1
  i=         27  reset=0  state=10  in=1  out=0  correct=1
  i=         28  reset=0  state=11  in=1  out=1  correct=1
  i=         29  reset=0  state=01  in=1  out=0  correct=1
  i=         30  reset=1  state=01  in=1  out=0  correct=1
  i=         31  reset=0  state=00  in=0  out=0  correct=1
  i=         32  reset=0  state=00  in=0  out=0  correct=1
  i=         33  reset=0  state=00  in=0  out=0  correct=1
  i=         34  reset=0  state=00  in=0  out=0  correct=1
  i=         35  reset=0  state=00  in=1  out=0  correct=1
  i=         36  reset=0  state=01  in=0  out=0  correct=1
  i=         37  reset=0  state=10  in=1  out=0  correct=1
  i=         38  reset=0  state=11  in=1  out=1  correct=1
  i=         39  reset=0  state=01  in=1  out=0  correct=1
  i=         40  reset=1  state=01  in=1  out=0  correct=1
  i=         41  reset=0  state=00  in=1  out=0  correct=1
  i=         42  reset=0  state=01  in=0  out=0  correct=1
  i=         43  reset=0  state=10  in=0  out=0  correct=1
  i=         44  reset=0  state=00  in=1  out=0  correct=1
  i=         45  reset=0  state=01  in=1  out=0  correct=1
  i=         46  reset=0  state=01  in=1  out=0  correct=1
  i=         47  reset=0  state=01  in=0  out=0  correct=1
  i=         48  reset=0  state=10  in=0  out=0  correct=1
  i=         49  reset=0  state=00  in=0  out=0  correct=1
  i=         50  reset=1  state=00  in=0  out=0  correct=1
  i=         51  reset=0  state=00  in=0  out=0  correct=1
  i=         52  reset=0  state=00  in=1  out=0  correct=1
  i=         53  reset=0  state=01  in=0  out=0  correct=1
  i=         54  reset=0  state=10  in=0  out=0  correct=1
  i=         55  reset=0  state=00  in=1  out=0  correct=1
  i=         56  reset=0  state=01  in=1  out=0  correct=1
  i=         57  reset=0  state=01  in=0  out=0  correct=1
  i=         58  reset=0  state=10  in=0  out=0  correct=1
  i=         59  reset=0  state=00  in=0  out=0  correct=1
  i=         60  reset=1  state=00  in=0  out=0  correct=1
  i=         61  reset=0  state=00  in=0  out=0  correct=1
  i=         62  reset=0  state=00  in=1  out=0  correct=1
  i=         63  reset=0  state=01  in=1  out=0  correct=1
  i=         64  reset=0  state=01  in=1  out=0  correct=1
  i=         65  reset=0  state=01  in=1  out=0  correct=1
  i=         66  reset=0  state=01  in=1  out=0  correct=1
  i=         67  reset=0  state=01  in=0  out=0  correct=1
  i=         68  reset=0  state=10  in=0  out=0  correct=1
  i=         69  reset=0  state=00  in=1  out=0  correct=1
  i=         70  reset=1  state=01  in=1  out=0  correct=1
  i=         71  reset=0  state=00  in=1  out=0  correct=1
  i=         72  reset=0  state=01  in=0  out=0  correct=1
  i=         73  reset=0  state=10  in=0  out=0  correct=1
  i=         74  reset=0  state=00  in=1  out=0  correct=1
  i=         75  reset=0  state=01  in=1  out=0  correct=1
  i=         76  reset=0  state=01  in=0  out=0  correct=1
  i=         77  reset=0  state=10  in=1  out=0  correct=1
  i=         78  reset=0  state=11  in=1  out=1  correct=1
  i=         79  reset=0  state=01  in=0  out=0  correct=1
  i=         80  reset=1  state=10  in=1  out=0  correct=1
  i=         81  reset=0  state=00  in=1  out=0  correct=1
  i=         82  reset=0  state=01  in=1  out=0  correct=1
  i=         83  reset=0  state=01  in=0  out=0  correct=1
  i=         84  reset=0  state=10  in=1  out=0  correct=1
  i=         85  reset=0  state=11  in=1  out=1  correct=1
  i=         86  reset=0  state=01  in=0  out=0  correct=1
  i=         87  reset=0  state=10  in=0  out=0  correct=1
  i=         88  reset=0  state=00  in=0  out=0  correct=1
  i=         89  reset=0  state=00  in=0  out=0  correct=1
  i=         90  reset=1  state=00  in=1  out=0  correct=1
  i=         91  reset=0  state=00  in=1  out=0  correct=1
  i=         92  reset=0  state=01  in=0  out=0  correct=1
  i=         93  reset=0  state=10  in=0  out=0  correct=1
  i=         94  reset=0  state=00  in=1  out=0  correct=1
  i=         95  reset=0  state=01  in=1  out=0  correct=1
  i=         96  reset=0  state=01  in=1  out=0  correct=1
  i=         97  reset=0  state=01  in=1  out=0  correct=1
  i=         98  reset=0  state=01  in=1  out=0  correct=1
  i=         99  reset=0  state=01  in=0  out=0  correct=1
  i=        100  reset=1  state=10  in=1  out=0  correct=1
  i=        101  reset=0  state=00  in=1  out=0  correct=1
  i=        102  reset=0  state=01  in=1  out=0  correct=1
  i=        103  reset=0  state=01  in=0  out=0  correct=1
  i=        104  reset=0  state=10  in=0  out=0  correct=1
  i=        105  reset=0  state=00  in=0  out=0  correct=1
  i=        106  reset=0  state=00  in=0  out=0  correct=1
  i=        107  reset=0  state=00  in=0  out=0  correct=1
  i=        108  reset=0  state=00  in=0  out=0  correct=1
  i=        109  reset=0  state=00  in=0  out=0  correct=1
  i=        110  reset=1  state=00  in=1  out=0  correct=1
  i=        111  reset=0  state=00  in=1  out=0  correct=1
  i=        112  reset=0  state=01  in=1  out=0  correct=1
  i=        113  reset=0  state=01  in=1  out=0  correct=1
  i=        114  reset=0  state=01  in=1  out=0  correct=1
  i=        115  reset=0  state=01  in=0  out=0  correct=1
  i=        116  reset=0  state=10  in=1  out=0  correct=1
  i=        117  reset=0  state=11  in=1  out=1  correct=1
  i=        118  reset=0  state=01  in=0  out=0  correct=1
  i=        119  reset=0  state=10  in=0  out=0  correct=1
  i=        120  reset=1  state=00  in=1  out=0  correct=1
  i=        121  reset=0  state=00  in=1  out=0  correct=1
  i=        122  reset=0  state=01  in=0  out=0  correct=1
  i=        123  reset=0  state=10  in=1  out=0  correct=1
  i=        124  reset=0  state=11  in=1  out=1  correct=1
  i=        125  reset=0  state=01  in=1  out=0  correct=1
  i=        126  reset=0  state=01  in=1  out=0  correct=1
  i=        127  reset=0  state=01  in=0  out=0  correct=1
  i=        128  reset=0  state=10  in=0  out=0  correct=1
  i=        129  reset=0  state=00  in=0  out=0  correct=1
  i=        130  reset=1  state=00  in=1  out=0  correct=1
  i=        131  reset=0  state=00  in=0  out=0  correct=1
  i=        132  reset=0  state=00  in=0  out=0  correct=1
  i=        133  reset=0  state=00  in=0  out=0  correct=1
  i=        134  reset=0  state=00  in=1  out=0  correct=1
  i=        135  reset=0  state=01  in=1  out=0  correct=1
  i=        136  reset=0  state=01  in=0  out=0  correct=1
  i=        137  reset=0  state=10  in=0  out=0  correct=1
  i=        138  reset=0  state=00  in=1  out=0  correct=1
  i=        139  reset=0  state=01  in=0  out=0  correct=1
  i=        140  reset=1  state=10  in=0  out=0  correct=1
  i=        141  reset=0  state=00  in=0  out=0  correct=1
  i=        142  reset=0  state=00  in=1  out=0  correct=1
  i=        143  reset=0  state=01  in=0  out=0  correct=1
  i=        144  reset=0  state=10  in=0  out=0  correct=1
  i=        145  reset=0  state=00  in=1  out=0  correct=1
  i=        146  reset=0  state=01  in=0  out=0  correct=1
  i=        147  reset=0  state=10  in=1  out=0  correct=1
  i=        148  reset=0  state=11  in=1  out=1  correct=1
  i=        149  reset=0  state=01  in=1  out=0  correct=1
  i=        150  reset=1  state=01  in=1  out=0  correct=1
  i=        151  reset=0  state=00  in=1  out=0  correct=1
  i=        152  reset=0  state=01  in=0  out=0  correct=1
  i=        153  reset=0  state=10  in=0  out=0  correct=1
  i=        154  reset=0  state=00  in=0  out=0  correct=1
  i=        155  reset=0  state=00  in=1  out=0  correct=1
  i=        156  reset=0  state=01  in=0  out=0  correct=1
  i=        157  reset=0  state=10  in=0  out=0  correct=1
  i=        158  reset=0  state=00  in=1  out=0  correct=1
  i=        159  reset=0  state=01  in=1  out=0  correct=1
  i=        160  reset=1  state=01  in=0  out=0  correct=1
  i=        161  reset=0  state=00  in=0  out=0  correct=1
  i=        162  reset=0  state=00  in=0  out=0  correct=1
  i=        163  reset=0  state=00  in=1  out=0  correct=1
  i=        164  reset=0  state=01  in=1  out=0  correct=1
  i=        165  reset=0  state=01  in=0  out=0  correct=1
  i=        166  reset=0  state=10  in=0  out=0  correct=1
  i=        167  reset=0  state=00  in=0  out=0  correct=1
  i=        168  reset=0  state=00  in=1  out=0  correct=1
  i=        169  reset=0  state=01  in=1  out=0  correct=1
  i=        170  reset=1  state=01  in=0  out=0  correct=1
  i=        171  reset=0  state=00  in=0  out=0  correct=1
  i=        172  reset=0  state=00  in=0  out=0  correct=1
  i=        173  reset=0  state=00  in=1  out=0  correct=1
  i=        174  reset=0  state=01  in=0  out=0  correct=1
  i=        175  reset=0  state=10  in=0  out=0  correct=1
  i=        176  reset=0  state=00  in=1  out=0  correct=1
  i=        177  reset=0  state=01  in=0  out=0  correct=1
  i=        178  reset=0  state=10  in=0  out=0  correct=1
  i=        179  reset=0  state=00  in=0  out=0  correct=1
  i=        180  reset=1  state=00  in=1  out=0  correct=1
  i=        181  reset=0  state=00  in=0  out=0  correct=1
  i=        182  reset=0  state=00  in=1  out=0  correct=1
  i=        183  reset=0  state=01  in=1  out=0  correct=1
  i=        184  reset=0  state=01  in=0  out=0  correct=1
  i=        185  reset=0  state=10  in=0  out=0  correct=1
  i=        186  reset=0  state=00  in=0  out=0  correct=1
  i=        187  reset=0  state=00  in=0  out=0  correct=1
  i=        188  reset=0  state=00  in=1  out=0  correct=1
  i=        189  reset=0  state=01  in=0  out=0  correct=1
  i=        190  reset=1  state=10  in=0  out=0  correct=1
  i=        191  reset=0  state=00  in=0  out=0  correct=1
  i=        192  reset=0  state=00  in=0  out=0  correct=1
  i=        193  reset=0  state=00  in=1  out=0  correct=1
  i=        194  reset=0  state=01  in=1  out=0  correct=1
  i=        195  reset=0  state=01  in=1  out=0  correct=1
  i=        196  reset=0  state=01  in=0  out=0  correct=1
  i=        197  reset=0  state=10  in=1  out=0  correct=1
  i=        198  reset=0  state=11  in=1  out=1  correct=1
  i=        199  reset=0  state=01  in=1  out=0  correct=1
  i=        200  reset=1  state=01  in=0  out=0  correct=1
  i=        201  reset=0  state=00  in=0  out=0  correct=1
  i=        202  reset=0  state=00  in=1  out=0  correct=1
  i=        203  reset=0  state=01  in=1  out=0  correct=1
  i=        204  reset=0  state=01  in=1  out=0  correct=1
  i=        205  reset=0  state=01  in=1  out=0  correct=1
  i=        206  reset=0  state=01  in=1  out=0  correct=1
  i=        207  reset=0  state=01  in=0  out=0  correct=1
  i=        208  reset=0  state=10  in=1  out=0  correct=1
  i=        209  reset=0  state=11  in=1  out=1  correct=1
  i=        210  reset=1  state=01  in=0  out=0  correct=1
  i=        211  reset=0  state=00  in=0  out=0  correct=1
  i=        212  reset=0  state=00  in=0  out=0  correct=1
  i=        213  reset=0  state=00  in=0  out=0  correct=1
  i=        214  reset=0  state=00  in=1  out=0  correct=1
  i=        215  reset=0  state=01  in=1  out=0  correct=1
  i=        216  reset=0  state=01  in=0  out=0  correct=1
  i=        217  reset=0  state=10  in=0  out=0  correct=1
  i=        218  reset=0  state=00  in=1  out=0  correct=1
  i=        219  reset=0  state=01  in=0  out=0  correct=1
  i=        220  reset=1  state=10  in=0  out=0  correct=1
  i=        221  reset=0  state=00  in=1  out=0  correct=1
  i=        222  reset=0  state=01  in=0  out=0  correct=1
  i=        223  reset=0  state=10  in=0  out=0  correct=1
  i=        224  reset=0  state=00  in=1  out=0  correct=1
  i=        225  reset=0  state=01  in=0  out=0  correct=1
  i=        226  reset=0  state=10  in=0  out=0  correct=1
  i=        227  reset=0  state=00  in=1  out=0  correct=1
  i=        228  reset=0  state=01  in=1  out=0  correct=1
  i=        229  reset=0  state=01  in=1  out=0  correct=1
  i=        230  reset=1  state=01  in=0  out=0  correct=1
  i=        231  reset=0  state=00  in=0  out=0  correct=1
  i=        232  reset=0  state=00  in=0  out=0  correct=1
  i=        233  reset=0  state=00  in=1  out=0  correct=1
  i=        234  reset=0  state=01  in=0  out=0  correct=1
  i=        235  reset=0  state=10  in=0  out=0  correct=1
  i=        236  reset=0  state=00  in=1  out=0  correct=1
  i=        237  reset=0  state=01  in=0  out=0  correct=1
  i=        238  reset=0  state=10  in=0  out=0  correct=1
  i=        239  reset=0  state=00  in=0  out=0  correct=1
  i=        240  reset=1  state=00  in=0  out=0  correct=1
  i=        241  reset=0  state=00  in=1  out=0  correct=1
  i=        242  reset=0  state=01  in=0  out=0  correct=1
  i=        243  reset=0  state=10  in=0  out=0  correct=1
  i=        244  reset=0  state=00  in=0  out=0  correct=1
  i=        245  reset=0  state=00  in=1  out=0  correct=1
  i=        246  reset=0  state=01  in=1  out=0  correct=1
  i=        247  reset=0  state=01  in=0  out=0  correct=1
  i=        248  reset=0  state=10  in=1  out=0  correct=1
  i=        249  reset=0  state=11  in=1  out=1  correct=1
  i=        250  reset=1  state=01  in=1  out=0  correct=1
  i=        251  reset=0  state=00  in=1  out=0  correct=1
  i=        252  reset=0  state=01  in=0  out=0  correct=1
  i=        253  reset=0  state=10  in=1  out=0  correct=1
  i=        254  reset=0  state=11  in=1  out=1  correct=1
  i=        255  reset=0  state=01  in=1  out=0  correct=1
  i=        256  reset=0  state=01  in=0  out=0  correct=1
  i=        257  reset=0  state=10  in=0  out=0  correct=1
  i=        258  reset=0  state=00  in=1  out=0  correct=1
  i=        259  reset=0  state=01  in=0  out=0  correct=1
  i=        260  reset=1  state=10  in=0  out=0  correct=1
  i=        261  reset=0  state=00  in=1  out=0  correct=1
  i=        262  reset=0  state=01  in=1  out=0  correct=1
  i=        263  reset=0  state=01  in=0  out=0  correct=1
  i=        264  reset=0  state=10  in=0  out=0  correct=1
  i=        265  reset=0  state=00  in=1  out=0  correct=1
  i=        266  reset=0  state=01  in=0  out=0  correct=1
  i=        267  reset=0  state=10  in=0  out=0  correct=1
  i=        268  reset=0  state=00  in=1  out=0  correct=1
  i=        269  reset=0  state=01  in=0  out=0  correct=1
  i=        270  reset=1  state=10  in=1  out=0  correct=1
  i=        271  reset=0  state=00  in=1  out=0  correct=1
  i=        272  reset=0  state=01  in=0  out=0  correct=1
  i=        273  reset=0  state=10  in=1  out=0  correct=1
  i=        274  reset=0  state=11  in=0  out=1  correct=1
  i=        275  reset=0  state=10  in=1  out=0  correct=1
  i=        276  reset=0  state=11  in=0  out=1  correct=1
  i=        277  reset=0  state=10  in=0  out=0  correct=1
  i=        278  reset=0  state=00  in=1  out=0  correct=1
  i=        279  reset=0  state=01  in=0  out=0  correct=1
  i=        280  reset=1  state=10  in=0  out=0  correct=1
  i=        281  reset=0  state=00  in=0  out=0  correct=1
  i=        282  reset=0  state=00  in=1  out=0  correct=1
  i=        283  reset=0  state=01  in=1  out=0  correct=1
  i=        284  reset=0  state=01  in=1  out=0  correct=1
  i=        285  reset=0  state=01  in=1  out=0  correct=1
  i=        286  reset=0  state=01  in=1  out=0  correct=1
  i=        287  reset=0  state=01  in=0  out=0  correct=1
  i=        288  reset=0  state=10  in=1  out=0  correct=1
  i=        289  reset=0  state=11  in=1  out=1  correct=1
  i=        290  reset=1  state=01  in=1  out=0  correct=1
  i=        291  reset=0  state=00  in=0  out=0  correct=1
  i=        292  reset=0  state=00  in=0  out=0  correct=1
  i=        293  reset=0  state=00  in=0  out=0  correct=1
  i=        294  reset=0  state=00  in=0  out=0  correct=1
  i=        295  reset=0  state=00  in=0  out=0  correct=1
  i=        296  reset=0  state=00  in=0  out=0  correct=1
  i=        297  reset=0  state=00  in=1  out=0  correct=1
  i=        298  reset=0  state=01  in=1  out=0  correct=1
  i=        299  reset=0  state=01  in=1  out=0  correct=1
  i=        300  reset=1  state=01  in=1  out=0  correct=1
  i=        301  reset=0  state=00  in=1  out=0  correct=1
  i=        302  reset=0  state=01  in=1  out=0  correct=1
  i=        303  reset=0  state=01  in=1  out=0  correct=1
  i=        304  reset=0  state=01  in=0  out=0  correct=1
  i=        305  reset=0  state=10  in=1  out=0  correct=1
  i=        306  reset=0  state=11  in=1  out=1  correct=1
  i=        307  reset=0  state=01  in=1  out=0  correct=1
  i=        308  reset=0  state=01  in=1  out=0  correct=1
  i=        309  reset=0  state=01  in=1  out=0  correct=1
  i=        310  reset=1  state=01  in=1  out=0  correct=1
  i=        311  reset=0  state=00  in=1  out=0  correct=1
  i=        312  reset=0  state=01  in=1  out=0  correct=1
  i=        313  reset=0  state=01  in=0  out=0  correct=1
  i=        314  reset=0  state=10  in=0  out=0  correct=1
  i=        315  reset=0  state=00  in=1  out=0  correct=1
  i=        316  reset=0  state=01  in=1  out=0  correct=1
  i=        317  reset=0  state=01  in=0  out=0  correct=1
  i=        318  reset=0  state=10  in=0  out=0  correct=1
  i=        319  reset=0  state=00  in=0  out=0  correct=1
  i=        320  reset=1  state=00  in=0  out=0  correct=1
  i=        321  reset=0  state=00  in=1  out=0  correct=1
  i=        322  reset=0  state=01  in=0  out=0  correct=1
  i=        323  reset=0  state=10  in=0  out=0  correct=1
  i=        324  reset=0  state=00  in=0  out=0  correct=1
  i=        325  reset=0  state=00  in=0  out=0  correct=1
  i=        326  reset=0  state=00  in=0  out=0  correct=1
  i=        327  reset=0  state=00  in=0  out=0  correct=1
  i=        328  reset=0  state=00  in=1  out=0  correct=1
  i=        329  reset=0  state=01  in=0  out=0  correct=1
  i=        330  reset=1  state=10  in=0  out=0  correct=1
  i=        331  reset=0  state=00  in=1  out=0  correct=1
  i=        332  reset=0  state=01  in=0  out=0  correct=1
  i=        333  reset=0  state=10  in=0  out=0  correct=1
  i=        334  reset=0  state=00  in=0  out=0  correct=1
  i=        335  reset=0  state=00  in=0  out=0  correct=1
  i=        336  reset=0  state=00  in=1  out=0  correct=1
  i=        337  reset=0  state=01  in=1  out=0  correct=1
  i=        338  reset=0  state=01  in=1  out=0  correct=1
  i=        339  reset=0  state=01  in=1  out=0  correct=1
  i=        340  reset=1  state=01  in=1  out=0  correct=1
  i=        341  reset=0  state=00  in=0  out=0  correct=1
  i=        342  reset=0  state=00  in=1  out=0  correct=1
  i=        343  reset=0  state=01  in=1  out=0  correct=1
  i=        344  reset=0  state=01  in=1  out=0  correct=1
  i=        345  reset=0  state=01  in=0  out=0  correct=1
  i=        346  reset=0  state=10  in=1  out=0  correct=1
  i=        347  reset=0  state=11  in=0  out=1  correct=1
  i=        348  reset=0  state=10  in=0  out=0  correct=1
  i=        349  reset=0  state=00  in=1  out=0  correct=1
  i=        350  reset=1  state=01  in=1  out=0  correct=1
  i=        351  reset=0  state=00  in=0  out=0  correct=1
  i=        352  reset=0  state=00  in=1  out=0  correct=1
  i=        353  reset=0  state=01  in=0  out=0  correct=1
  i=        354  reset=0  state=10  in=0  out=0  correct=1
  i=        355  reset=0  state=00  in=1  out=0  correct=1
  i=        356  reset=0  state=01  in=0  out=0  correct=1
  i=        357  reset=0  state=10  in=0  out=0  correct=1
  i=        358  reset=0  state=00  in=0  out=0  correct=1
  i=        359  reset=0  state=00  in=0  out=0  correct=1
  i=        360  reset=1  state=00  in=1  out=0  correct=1
  i=        361  reset=0  state=00  in=1  out=0  correct=1
  i=        362  reset=0  state=01  in=1  out=0  correct=1
  i=        363  reset=0  state=01  in=1  out=0  correct=1
  i=        364  reset=0  state=01  in=0  out=0  correct=1
  i=        365  reset=0  state=10  in=1  out=0  correct=1
  i=        366  reset=0  state=11  in=1  out=1  correct=1
  i=        367  reset=0  state=01  in=1  out=0  correct=1
  i=        368  reset=0  state=01  in=1  out=0  correct=1
  i=        369  reset=0  state=01  in=1  out=0  correct=1
  i=        370  reset=1  state=01  in=1  out=0  correct=1
  i=        371  reset=0  state=00  in=1  out=0  correct=1
  i=        372  reset=0  state=01  in=0  out=0  correct=1
  i=        373  reset=0  state=10  in=1  out=0  correct=1
  i=        374  reset=0  state=11  in=0  out=1  correct=1
  i=        375  reset=0  state=10  in=1  out=0  correct=1
  i=        376  reset=0  state=11  in=0  out=1  correct=1
  i=        377  reset=0  state=10  in=0  out=0  correct=1
  i=        378  reset=0  state=00  in=1  out=0  correct=1
  i=        379  reset=0  state=01  in=0  out=0  correct=1
  i=        380  reset=1  state=10  in=0  out=0  correct=1
  i=        381  reset=0  state=00  in=0  out=0  correct=1
  i=        382  reset=0  state=00  in=0  out=0  correct=1
  i=        383  reset=0  state=00  in=0  out=0  correct=1
  i=        384  reset=0  state=00  in=1  out=0  correct=1
  i=        385  reset=0  state=01  in=0  out=0  correct=1
  i=        386  reset=0  state=10  in=0  out=0  correct=1
  i=        387  reset=0  state=00  in=0  out=0  correct=1
  i=        388  reset=0  state=00  in=0  out=0  correct=1
  i=        389  reset=0  state=00  in=0  out=0  correct=1
  i=        390  reset=1  state=00  in=0  out=0  correct=1
  i=        391  reset=0  state=00  in=1  out=0  correct=1
  i=        392  reset=0  state=01  in=0  out=0  correct=1
  i=        393  reset=0  state=10  in=1  out=0  correct=1
  i=        394  reset=0  state=11  in=0  out=1  correct=1
  i=        395  reset=0  state=10  in=0  out=0  correct=1
  i=        396  reset=0  state=00  in=1  out=0  correct=1
  i=        397  reset=0  state=01  in=0  out=0  correct=1
  i=        398  reset=0  state=10  in=1  out=0  correct=1
  i=        399  reset=0  state=11  in=1  out=1  correct=1
ENDING TESTBENCH : SUCCESS !

$finish called from file "test_ab.v", line 119.
$finish at simulation time                 4090
           V C S   S i m u l a t i o n   R e p o r t 
Time: 4090
CPU Time:      0.150 seconds;       Data structure size:   0.2Mb
Fri Jan 25 15:04:50 2013
